Construction of a Historical S&P 500 Total Return Index | Christoph Scheuch
…
Finally, let us combine (i) the actual S&P 500 Total Return Index from 1988 until 2020, (ii) the simulated S&P 500 total return index before 1988, and (iii) the S&P 500 price index from 1928 until 2020.

tbl.SP500Monthly <- tbl.SP500Recent%>%
  bind_rows(tbl.SP500Historical %>%
              filter(Month < min(tbl.SP500Recent$Month))  %>%
              select(Month, TotalReturnIndex)) %>%
  full_join(tbl.SP500Index %>% 
              select(Month, Index), by = "Month") %>%
  filter(Month >= "1928-01-01")  %>%
  arrange(Month)
tbl.SP500Monthly

## # A tibble: 1,114 x 3
##    Month      TotalReturnIndex Index
##    <date>                <dbl> <dbl>
##  1 1928-01-31             1.20  17.6
##  2 1928-02-29             1.21  17.3
##  3 1928-03-31             1.20  19.3
##  4 1928-04-30             1.26  19.8
##  5 1928-05-31             1.35  20  
##  6 1928-06-30             1.39  19.1
##  7 1928-07-31             1.33  19.4
##  8 1928-08-31             1.35  20.9
##  9 1928-09-30             1.39  21.1
## 10 1928-10-31             1.50  21.7
## # ... with 1,104 more rows
…
